module text-adventure

go 1.22

require (
	github.com/charmbracelet/bubbles v0.19.0
	github.com/charmbracelet/bubbletea v1.1.0
	github.com/charmbracelet/lipgloss v0.13.0
	github.com/charmbracelet/x/exp/teatest v0.0.0-20240904165849-e8e43e13f84b
	github.com/go-test/deep v1.1.1
	github.com/muesli/reflow v0.3.0
	github.com/muesli/termenv v0.15.2
	golang.org/x/exp v0.0.0-20240823005443-9b4947da3948
)

require (
	github.com/atotto/clipboard v0.1.4 // indirect
	github.com/aymanbagabas/go-osc52/v2 v2.0.1 // indirect
	github.com/aymanbagabas/go-udiff v0.2.0 // indirect
	github.com/charmbracelet/harmonica v0.2.0 // indirect
	github.com/charmbracelet/x/ansi v0.2.3 // indirect
	github.com/charmbracelet/x/exp/golden v0.0.0-20240815200342-61de596daa2b // indirect
	github.com/charmbracelet/x/term v0.2.0 // indirect
	github.com/dustin/go-humanize v1.0.1 // indirect
	github.com/erikgeiser/coninput v0.0.0-20211004153227-1c3628e74d0f // indirect
	github.com/lucasb-eyer/go-colorful v1.2.0 // indirect
	github.com/mattn/go-isatty v0.0.20 // indirect
	github.com/mattn/go-localereader v0.0.1 // indirect
	github.com/mattn/go-runewidth v0.0.16 // indirect
	github.com/muesli/ansi v0.0.0-20230316100256-276c6243b2f6 // indirect
	github.com/muesli/cancelreader v0.2.2 // indirect
	github.com/rivo/uniseg v0.4.7 // indirect
	github.com/sahilm/fuzzy v0.1.1 // indirect
	golang.org/x/sync v0.8.0 // indirect
	golang.org/x/sys v0.24.0 // indirect
	golang.org/x/text v0.17.0 // indirect
)
